88;Thompson, J. Lee;27;88
88;Winkler, Irwin;130;88
88;Prior, David A.;169;88
88;Pytka, Joe;453;88
88;Jaglom, Henry;600;88
88;Pal, George;825;88
88;Spottiswoode, Roger;969;88
88;Imamura, Shohei;1022;88
88;Finkleman, Ken;1047;88
88;Houck, Joy, Jr.;1360;88
88;Olmos, Edward James;1449;88
87;Corneau, Alan;328;87
87;Shatner, William ;872;87
87;Beebe, Ford;1149;87
86;Conway, Jack;500;86
86;Totten, Robert;990;86
86;Hutton, Brian G.;1129,1365;87,84
86;Fleischer, Richard;1218;86
85;Wimhurst, Jolyon;1150;85
85;Plone, Allen;1200;85
85;Miles, Christopher;1275;85
84;Rees, Jerry;117;84
84;Belson, Jerry;396;84
84;Grant, James Edward;1007;84
84;Betnel, Jonathan;1255;84
84;Becker, Harold;1293;84
84;Kennedy, Burt;1378;84
83;May, Elaine;67;83
83;Thomas, Ralph;99;83
83;Rush, Richard;138;83
83;Beaudine, William;741;83
83;Howard, William K.;755;83
83;Zemeckis, Robert ;1178;83
83;Cannon, Raymond;1302;83
82;Stern, Steven Hilliard;28,910;88,75
82;Meagher, John;354;82
82;Mamoulian, Rouben;445;82
82;Katselas, Milton;514;82
82;Mizoguchi, Kenji;674;82
82;Fanaka, Jamaa;1325;82
82;Rochlin, Sheldon;1472;82
81;S, Jeremiah;294;81
81;Zanussi, Krzystoff;662,1214;78,84
81;Sayles, John;793;81
81;Lean, David;820;81
81;Hughes, Terry;1362;81
80;Pillsbury, Sam;25;80
80;Parrish, Robert;378;80
80;Ruben, Katt Shea;423;80
80;Beatty, Warren;532,625;84,76
80;Amateau, Rod;700;80
80;Sagal, Boris;729;80
80;Scola, Ettore;730;80
80;Van Peebles, Mario;817;80
80;Bondarchuk, Sergei;1035;80
79;Axel, Gabriel;70;79
79;Sturges, John;409,855,1499;84,73,79
79;Smithey, Alan;411;79
79;Kazan, Elia;545,698,1376;75,75,86
79;Frank, Melvin;595;79
79;Byrne, David;673;79
79;Gordon, Steve;827;79
79;Quinn, John;1005;79
79;Wilcox, Fred M;1137;79
79;Marshall, George;1169;79
79;Strock, Herbert L.;1497;79
78;Caro, Marc;347;78
78;Needham, Hal;390,737;80,75
78;Harvey, Anthony;544;78
78;Dinner, Michael;764;78
78;Lovy, Steven;873;78
78;Cooper, Jackie;992,1151;80,76
78;Arnold, Newt;1290;78
77;Rifkin, Adam;256;77
77;Szabó, István;270,601;74,80
77;Siodmak, Robert;1490;77
76;Rappeneau, Jean-Paul;207;76
76;Kampmann, Steven ;427;76
76;Miller, Stuart;548;76
76;Madsen, Kenneth;1253;76
76;Douglas, Kirk;1323;76
76;Lloyd, Frank;1413;76
75;Donaggio, Michael Winner;74;75
75;Huyck, Willard;227;75
75;Barbash, Uri;796;75
75;Compton, Richard;919;75
75;Phillips, Maurice;1003;75
75;Brooks, Albert;1100;75
75;Degas, Andre;1319;75
75;Hardy, Rod;1347;75
75;Menzel, Jiri;1433;75
75;Pontecorvo, Gillo;1460;75
75;Sholder, Jack;1487;75
74;Avedis, Howard Hikmet;297;74
74;Magnoli, Albert;608;74
74;De Winter, Harry;756;74
74;Waggner, George;959;74
74;Petrie, Donald;1147;74
73;Ford, Aleksander;208;73
73;Pabst, Georg Wilhelm;447;73
73;Robertson, John S.;448;73
73;Segal, Alex;967;73
73;Hancock, John D.;1213;73
72;Adolphson, Edvin;140;72
72;Barker, Clive;191;72
72;Lathan, Stan;254;72
72;Bahr, Fax;279;72
72;Chelsom, Peter;407;72
72;Niblo, Fred;446;72
72;Bowser, Kenneth;854;72
72;Gillard, Stuart;1044;72
72;Griffi, Giuseppe Patroni;1127;72
72;Bogner, Willy;1299;72
71;Moxey, John Llewellyn;115;71
71;Duigan, John;232;71
71;Hoffs, Tamar Simon;568;71
71;Kaczender, George;575;71
71;Kikoine, Gerard;659;71
71;Loach, Ken;790;71
71;Kaplan, Jonathan;798;71
71;Palcy, Euzhan;1033;71
71;Roth, Bobby;1206;71
71;Nigh, William;1446;71
71;Rademakers, Fons;1465;71
70;DeCoteau, David;84;70
70;Romero, George A.;85;70
70;Surin, Fred;98;70
70;King Keller, Frederick;218;70
70;Seiter, William A.;248,1170;87,53
70;Franklin, Sidney;441;70
70;Byrum, John;501,1052;85,54
70;Ramis, Harold;569;70
70;Avildsen, John G.;635,1056,1167;82,78,51
70;Soderbergh, Steven;745;70
70;De Filippo, Eduardo;1216;70
70;Perier, Etienne;1456;70
69;Kollek, Amos;356;69
69;Chapman, Michael;490,1156;73,65
69;Herman, Mark;646;69
69;Lattuada, Alberto;701;69
69;Keach, James;786;69
69;Wendkos, Paul;1046;69
69;McEveety, Vincent;1427;69
69;Schultz, Michael;1482;69
68;Howson, Frank;58;68
68;Ford, Greg;133;68
68;Teague, Lewis;1177;68
68;Morrissey, Paul;1261;68
68;Carlsen, Henning;1303;68
68;Mischer, Don;1437;68
67;Depardieu, Gérard;49;67
67;London, Roy;394;67
67;Fitzmaurice, George;440;67
67;Bill, Tony;488,844;61,73
67;Zieff, Howard;522,656;61,73
67;Thomas, Dave;949;67
67;Walters, Charles;1238;67
66;Aurel, Jean;89;66
66;Ingvordsen, J. Christian;209;66
66;Faiman, Peter;665;66
66;Hill, Walter;686,899;65,67
66;Zwick, Edward;843;66
66;Kloves, Steve;924;66
66;Patterson, Willi;956;66
66;Green, Alfred E.;1085;66
66;Savoca, Nancy;1148;66
65;Lafia, John;502;65
65;Negulesco, Jean;835;65
65;Kronsberg, Jeremy Joe;1198;65
65;Stuart, Mel;1498;65
64;Glen, John;5,198,1203;68,86,39
64;Berri, Claude;325,331;40,87
64;Quinn, James;373;64
64;Leonard, Robert Z.;443;64
64;Hickox, Douglas;459;64
64;Blier, Bertrand;460,692,847,1298;75,78,66,35
64;Birch, Patricia;921;64
64;Donner, Clive;943,944;83,46
64;Caton-Jones, Michael;1205;64
64;Ward, David S.;1232;64
63;Ruben, Joseph;228;63
63;Clément, René;233;63
63;Ray, Nicholas;249,1259,1466;85,82,23
63;Englund, George;260;63
63;Neff, Thomas L.;574;63
63;Minnelli, Vincente;828,1113,1132,1163,1436;70,67,54,71,52
63;Dale, Cynthia;1314;63
63;Irvin, John;1366;63
63;Stiller, Mauritz;1495;63
62;Almodóvar, Pedro;0,1,783,784,785,1286;68,68,34,65,66,73
62;Friedkin, William;216,1340,1341;28,88,70
62;Anger, Kenneth;220;62
62;Aldrich, Robert;303,1281,1282,1283,1284;68,71,78,84,10
62;Kubrick, Stanley;367,618,744,811,1062,1184,1241,1382,1383;32,66,80,47,67,83,51,83,45
62;Dwan, Allan;408,770;52,72
62;Silverstein, Elliot;417;62
62;Fukasaku, Kinji;583;62
62;Blot, Philippe;668;62
62;O'Herlihy, Michael;893;62
62;Masterson, Peter;900;62
62;Abrahams, Jim;1017,1068;41,84
62;Trikonis, Gus;1136;62
62;Yorkin, Bud;1231;62
62;Hellman, Oliver;1251;62
61;Band, Charles;393,1201;47,75
61;Browning, Tod;588;61
61;Holland, Savage Steve;839;61
61;Sherman, George;889,1485,1486;68,83,33
61;Prince, Harold;1134;61
60;Donner, Richard;20,645,648,923;15,69,87,68
60;Hopkins, Stephen;23,830;79,41
60;Brooks, Richard;430,627;66,54
60;Cassavetes, John;451;60
60;Dragoti, Stan;589;60
60;Nimoy, Leonard;679;60
60;Karlson, Phil;834;60
60;Ivory, James;903,1220;45,75
60;Bogart, Paul;1018;60
60;Losey, Joseph;1130;60
60;Jeunet, Jean-Pierre;1209;60
60;Clair, Rene;1306;60
59;DeMille, Cecil B.;126;59
59;Fellini, Federico;230,374,412,634,767,773,1326;80,20,75,88,50,70,29
59;Jewison, Norman;251,513,702,1020;6,74,76,79
59;Fosse, Bob;826;59
59;Baker, Graham;937;59
59;Myerson, Alan;962;59
59;Sharman, Jim;1034;59
59;Fincher, David;1208;59
59;Patterson, Richard;1453;59
58;Wise, Robert;47,1064,1260,1528;59,77,38,56
58;Carpenter, John;489;58
58;Beresford, Bruce;503,626,938,1123;61,84,80,6
58;Vigne, Daniel;1211,1527;64,51
57;Rossellini, Roberto;160,161,162,163;34,57,69,69
57;Wyler, William;314,541,1116;81,60,30
57;Boleslawski, Richard;433;57
57;LeRoy, Mervyn;644,1409;69,45
57;McGrath, Joseph;751,1429;86,28
57;Rudolph, Alan;801;57
57;Cosmatos, George P.;874;57
57;Corman, Roger;1096,1145,1248,1311,1312;64,32,17,88,85
57;Couturie, Bill;1173;57
57;Hulton, Brian G.;1191;57
57;Simon, S. Sylvan;1276;57
57;O'Connor, Pat;1447;57
56;Molander, Gustaf;154,155,156;32,49,88
56;Mankiewicz, Joseph L.;306,454,1063,1131;23,50,70,80
56;De Sica, Vittorio;375,719,720,721,750,1024;60,83,40,73,36,42
56;Lawton, J.F.;1182;56
56;Stevens, George, Jr.;1494;56
55;Edwards, Blake;42,43,110,245,941,1079,1256;60,67,7,32,77,51,88
55;Crosland, Alan;69;55
55;Koster, Henry;95,577,1061,1380;71,42,22,84
55;Schlesinger, John;183,259,1479,1480;81,44,33,61
55;Pialat, Maurice;192,581;45,65
55;Hathaway, Henry;300,526,722,1350;77,29,84,31
55;Taylor, Ray;499,566,572,691,882,883,884,978,984,1504,1505,1506,1507,1508,1509,1510,1511,1512,1513,1514;82,77,61,19,85,87,85,27,17,80,43,53,43,21,66,62,78,52,17,40
55;Coppola, Christopher;669;55
54;Attenborough, Richard;51,135,680;85,7,71
54;Saks, Gene;164,638;67,40
54;Sargent, Joseph;174;54
54;Vidor, Charles;529,530,531;57,57,48
54;Post, Ted;672,1091,1461;67,67,28
54;Mattoli, Mario;727;54
54;Keshishian, Alek;757;54
54;Antonio, Lou;1125;54
54;Forsyth, Bill;1339;54
54;Guest, Val;1345;54
53;Sinise, Gary;26;53
53;Truffaut, François;57,178,330;82,10,66
53;Wenders, Wim;87,139,343,344,593,655,666,1525;62,55,71,57,73,27,35,41
53;Ritchie, Michael;518,699,1470;22,86,52
53;Hough, John;723;53
53;Morneau, Louis;991;53
53;Guney, Yilmaz;1346;53
52;Purcell, Evelyn;64;52
52;Drury, David;122;52
52;Taylor, Jud;128,525,945,1023,1503;2,84,8,86,80
52;Kurosawa, Akira;295,1118,1384,1385,1386,1387,1388,1389,1390,1391,1392,1393,1394,1395;81,75,85,50,31,65,40,59,6,9,60,60,74,36
52;Pollack, Sydney;359,400,416,452,637,1106,1252,1458,1459;87,76,34,8,36,88,33,16,88
52;Avnet, John;389;52
52;Jordan, Neil;493,840;53,51
52;Boulting, Roy;510,710;41,63
52;Wertmuller, Lina;731;52
52;Howard, Ron;987,1087;59,45
52;Jackson, Donald G;1078,1227;31,74
51;Kulik, Buzz;16;51
51;Eastwood, Clint;189,190,203,281,705,706,774,775,795,917,1075,1197,1225,1324;57,69,48,66,57,18,77,61,69,12,45,47,24,64
51;Lederman, Ross;410;51
51;Brown, Clarence;434,435,436,437,438;66,0,72,83,35
51;Lang, Walter;547;51
51;Vidor, King;584;51
51;McBride, Jim;620;51
51;Brickman, Marshall;806;51
51;Costa-Gavras;902,1081;72,30
50;Sebastian, Beverly;7,747;28,73
50;Godard, Jean-Luc;94,471;81,20
50;Joanou, Phil;112,1270;50,49
50;Pevney, Joseph;205;50
50;Scott, Ridley;229,495,1031,1210;73,1,42,83
50;Theumer, Ernst R. von;239;50
50;Ashby, Hal;257,748;69,31
50;Joffe, Roland;276,332,742,1370;87,86,20,6
50;Beineix, Jean-Jacques;292,654;71,29
50;Goulding, Edmund;305,442;18,81
50;Benjamin, Richard;805;50
50;George, Peter;863;50
50;Dearden, Basil;866,1012;75,24
50;Towne, Robert;927;50
50;Tatoulis, Colin South, John;947;50
50;Flicker, Theodore J.;1212;50
50;Harrington, Curtis;1348;50
50;Peckinpah, Sam;1454;50
49;Huston, John;38,176,539,833,1026,1128,1174,1363,1364;52,65,32,77,65,81,25,6,39
49;Varda, Agnes;193;49
49;Siegel, Don;264,753,1029,1488,1489;57,36,72,60,22
49;Feferman, Linda;278;49
49;Young, Robert M.;458;49
49;Sandrich, Jay;520;49
49;Sherman, Vincent;527;49
49;Waris, Hussein;650;49
49;Malmuth, Bruce;694;49
49;Cimino, Michael;986,1101,1119,1305;58,82,41,16
49;Reed, Jerry;1467;49
48;Ford, John;18,219,301,302,351,352,353,462,524,576,639,822,858,885,886,887,901,1152,1153,1229,1257,1328,1329,1330;62,4,75,72,12,30,84,76,84,9,71,85,88,26,64,29,8,4,78,46,9,1,88,46
48;Hill, George Roy;44,204,287,582,993,1071;8,83,82,59,29,30
48;Lang, Fritz;60,131,132,1045,1398,1399,1400,1401,1402,1403,1404;79,31,80,74,49,55,29,27,49,4,48
48;Reiner, Rob;118;48
48;Nichols, Mike;137,479,752,1103,1104,1133,1443;10,25,63,57,52,82,50
48;Curtis, Dan;180,474;35,62
48;Dante, Joe;241,403,1013;61,42,41
48;Cammell, Donald;850;48
48;Jordan, Glenn;1032;48
48;Leone, Sergio;1254,1408;61,34
48;Hellman, Monte;1351,1352;70,26
48;Taylor, Gavin;1502;48
47;Gilbert, Lewis;77,253,275,1342;27,32,51,77
47;Holzman, Allan;167,506;71,23
47;Brickman, Paul;324,687;28,66
47;Cox, Alex;606;47
47;Rayfield, David;713;47
47;Kotcheff, Ted;799,1381;30,64
47;Bennett, Walter;880;47
47;Smith, Charles Martin;898;47
47;Clement, Dick;915;47
47;Stern, Sandor;940,954;88,6
47;Rosenthal, Rick;1051,1473;7,87
47;Serious, Yahoo;1240;47
47;Nelson, Gary;1440;47
47;Taylor, Roderick;1515;47
46;Rosenberg, Stuart;127,360,1199;55,34,49
46;Furie, Sidney J.;277,649;15,77
46;Higgins, Colin;512;46
46;Streisand, Barbra;1115;46
45;Milius, John;63,136,168,930;51,2,45,83
45;Benton, Robert;108,397,1098,1099;47,83,8,42
45;Rumar, Craig;206;45
45;Schroeder, Barbet;269,361,1481;73,23,39
45;Hermoso, Miguel;377;45
45;Hobbs, Lyndall;432;45
45;Oliansky, Joel;591;45
45;Gold, Greg;853;45
45;Reiner, Carl;918,1175;22,68
45;Clegg, Tom;1308;45
45;King, George;1379;45
44;Bakshi, Ralph;107;44
44;Pakula, Alan J.;125,415,667,1105,1451,1452;69,15,53,64,21,45
44;Anthony, Joseph;197,542;67,21
44;Crichton, Michael;213,336,348;64,62,7
44;Ritt, Martin;263,371,401,728,852,861,1114,1267;50,3,64,54,70,2,52,54
44;Richards, Dick;329,1469;59,29
44;Kramer, Stanley;340,546;39,50
44;Stevenson, Robert;420;44
44;Lisberger, Steven;457;44
44;Wilson, Hugh;467;44
44;Hallström, Lasse;580,653;68,21
44;Cohen, Martin B.;675;44
44;Stevens, George;808,1135;26,61
44;Marder, Bruce;860;44
44;Ruggles, Wesley;1144;44
44;Matthau, Charles;1155;44
44;MacNaughton, Ian;1424;44
43;Taylor, Sam;261,573,932;66,33,31
43;Rossen, Robert;464;43
43;Wiemer, Robert;611;43
43;Sternberg, Josef von;696;43
43;Schumacher, Joel;982,1234;19,67
42;Bergman, Ingmar;10,30,31,32,34,35,36,37,119,141,179,211,290,291,537,599,612,877,891,1122,1160,1161,1162,1185,1186,1187,1188,1195,1279;81,20,42,62,14,38,64,18,66,49,66,58,48,57,87,58,29,65,0,66,2,79,3,81,3,37,6,8,17
42;Hitchcock, Alfred;17,45,73,104,148,149,237,273,311,313,419,476,533,602,640,641,695,708,712,859,879,888,895,989,1019,1058,1271,1273,1354,1355,1356,1357,1358,1359;2,35,76,57,74,42,50,39,15,61,78,66,2,45,69,25,56,27,3,28,10,75,65,17,20,74,32,72,63,8,12,50,52,43
42;Seidelman, Susan;66,1110,1235;41,43,43
42;Frears, Stephen;86,268;6,77
42;Cukor, George;142,439,538,543,718;25,74,10,48,52
42;Hamilton, Guy;184,376,1084;77,41,8
42;Gilbert, Brian;398,1077;55,29
42;Lucas, George;405,1237;44,39
42;Stone, Oliver;461,496,621,771,816,933,1016,1496;77,6,8,44,78,59,60,8
42;Reeve, Geoffrey;562;42
42;Wilder, Gene;615,617;42,42
42;Silver, Marisa;1001;42
42;Newell, Mike;1441;42
41;Frankenheimer, John;81,636,823;39,76,9
41;Babenco, Hector;202,487,1097;10,81,32
41;Brest, Martin;372;41
41;Schnitzer, Robert Allen;381;41
41;Zinnemann, Fred;563,965,1272;20,75,27
41;King, Rick;660;41
41;Hook, Harry;709;41
41;Parker, Alan;794;41
41;Deutch, Howard;976,1157,1158;75,16,33
41;Wharmby, Tony;1076;41
41;Newman, Paul;1264,1265,1266,1442;68,57,32,7
41;Jarman, Derek;1368;41
40;Bradley, Al;80;40
40;Heston, Charlton;111;40
40;Day, Robert;226;40
40;Taylor, Don;235,570,995,1054;54,11,35,58
40;Jameson, Jerry;337,1277;10,69
40;Kane, Joseph;368,1375;54,27
40;Ross, Herbert;402,519,631,776,813,1069,1073,1222,1474;66,53,81,6,35,5,11,39,63
40;Lubitsch, Ernst;444;40
40;Welles, Orson;528,849,1523;16,80,23
40;Rydell, Mark;549,1476;23,58
40;Sarafian, Richard C.;821;40
40;Forbes, Bryan;896,1327;40,40
40;King, Stephen;1074;40
40;Mate, Rudolph;1086,1426;25,54
39;Cronenberg, David;2,214,244,307,370,505,897,1313;79,29,34,33,51,36,32,21
39;Puenzo, Luiz;15;39
39;Daniel, Rod;272,1192;20,58
39;Dahlin, Bob;355;39
39;Collins, Lewis D.;391,663;28,50
39;Dassin, Jules;812;39
39;Towns, Philip Saville;1117;39
39;Veber, Francis;1520,1521;24,54
38;Lambert, Mary;103,285;48,27
38;Nelson, Ralph;188;38
38;Gries, Tom;234,1219;28,48
38;Allen, Woody;296,384,385,386,387,623,624,999;22,20,14,80,8,68,82,7
38;Casden, Ron;382;38
38;Badham, John;677,1094;62,13
38;Vorhaus, Bernard;856;38
38;Manning, Michelle;1050;38
38;Poitier, Sidney;1066,1239;36,40
38;Boulting, John;1300;38
37;Walsh, Raoul;262,1171;22,52
37;Kadar, Jan;1070;37
37;Reisz, Karel;1107;37
36;Bertolucci, Bernardo;11,1027,1028,1043,1196,1244,1295,1296;17,26,72,28,45,64,1,35
36;Philips, Lee;120;36
36;Polanski, Roman;212,358;17,55
36;Auer, John H.;317;36
36;Roeg, Nicolas;345,1009,1280;41,48,18
36;Resnais, Alain;365,1468;1,71
36;Daves, Delmer;383,935;32,39
36;Mulligan, Robert;466,469;60,11
36;Cameron, James;483,484,1207;8,17,82
36;Schepisi, Fred;494,926,1108,1109;66,3,9,67
36;Clarke, Alan;571,1307;5,68
36;Stockwell, John;697;36
36;McLaglen, Andrew V.;703,994,1168,1221,1242,1430,1431;21,22,53,9,12,62,72
36;Mann, Anthony;724,725;62,10
36;Clark, Bob;912;36
36;Landis, John;925,1065;62,11
36;Ouellette, Jean-Paul;1095;36
36;De Bello, John;1315,1316;24,47
36;Graef, Roger;1344;36
36;Kellogg, Ray;1377;36
36;Ludman, Larry;1417,1418;34,37
36;Smight, Jack;1491;36
35;Wright, Thomas J.;298;35
35;De Palma, Brian;478,1317,1318;82,7,16
35;Lewis, Joseph H.;845;35
35;Zemeckis, Robert;1111,1159;61,9
35;Lennon, Biddy W.;1406;35
34;Lelouch, Claude;12,13,14;46,49,6
34;Lyne, Adrian;55,114;61,7
34;Winning, David;78,380;61,8
34;Molinaro, Edouard;97;34
34;Lee, Spike;221,318,1405;18,5,78
34;Heckerling, Amy;242,535;65,3
34;Walton, Kip;286,964;13,54
34;Tuchner, Michael;350,951;33,36
34;Damski, Mel;614;34
34;Glatter, Lesli Linka;715;34
34;Bergman, Andrew;810,906,1294;17,53,32
34;Arkush, Allan;814;34
34;Anderson, Michael;1287;34
34;Miller, David;1434,1435;6,61
33;Konchalovsky, Andrei;46,266,509;82,7,9
33;Russell, Ken;52,309,310,596,597,693,867,966,1176,1475;5,16,53,18,76,8,58,69,4,22
33;Renoir, Jean;159;33
33;Cabanne, Christy;231;33
33;Peerce, Larry;319;33
33;McEveety, Bernard;428;33
33;Martino, Sergio;768;33
33;Hunt, Peter R.;908,975;0,66
32;Nuytten, Bruno;9;32
32;Alda, Alan;50,920;53,12
32;Scorsese, Martin;65,171,201,560,689,781,829,1483;81,84,15,32,7,6,8,25
32;Bourguignon, Serge;92,282;54,11
32;Edgren, Gustaf;144;32
32;Gilliam, Terry;195,366,1002;83,5,8
32;Mackenzie, John;236,240;51,14
32;Demme, Jonathan;426,511,922;8,81,8
32;Sheridan, Jim;431;32
32;Bogdanovich, Peter;613,1053;3,62
32;Jarmusch, Jim;671,1000,1369;23,24,49
32;Hackford, Taylor;688,1245;62,1
32;Brooks, James L.;749;32
32;Richardson, Tony;904,1010;39,26
32;Antonioni, Michelangelo;1042;32
32;Apted, Michael;1164,1230;41,23
31;Coppola, Francis Ford;19,280,299,585,628,629,661,683,684,955,1172,1236,1309,1310;68,4,36,27,8,8,78,4,56,6,62,59,8,7
31;Glaser, Paul Michael;22;31
31;Hopper, Dennis;24,181,766,769,929;23,36,70,4,22
31;McCarey, Leo;153;31
31;Clark, Jim;170;31
31;Hyams, Peter;349,1014,1090;81,4,7
31;Dickerson, Ernest R.;557;31
31;Freed, Mark;717;31
31;Weir, Peter;746,803,1522;25,59,8
31;Reitman, Ivan;948,1247;23,39
31;Grosbard, Ulu;1102;31
31;Murphy, Eddie;1438,1439;51,11
31;Pyun, Albert;1462;31
30;Haskin, Byron;463,1349;56,3
30;Mann, Daniel;846,864;50,11
30;Brooks, Mel;851,916;33,27
30;Travis, Mark W.;1039;30
30;Kaurismäki, Mika;1193;30
30;Jackson, Mick;1367;30
29;Sidaris, Andy;421,1082,1083;31,20,36
29;Hughes, John;743,980,1030;2,73,12
29;Haggard, Piers;831;29
29;Fraker, William A.;848;29
29;Deruddere, Dominique;857;29
29;Bonerz, Peter;961;29
29;Oliver, Ron;1448;29
29;Wayne, John;1519;29
28;Dmytryk, Edward;93,1004,1126;0,10,74
28;Rafelson, Bob;182,1246;2,54
28;Claxton, William F.;224;28
28;Widerberg, Bo;320;28
28;Levinson, Barry;470,559,1204,1412;8,50,16,37
28;Blancato, Ken;681;28
28;Sherman, Gary;788;28
28;Ford, Philip;1331,1332,1333,1334,1335,1336,1337;1,8,31,6,72,18,61
27;Malle, Louis;96,957,1425;30,35,17
27;Donen, Stanley;143,605,1217,1322;1,10,67,31
27;Forman, Milos;173,293,1338;6,67,8
27;Bridges, James;413,1194,1233;43,7,30
27;Stanley, Paul;472;27
27;Holcomb, Rod;536;27
27;Lanza, Anthony M.;791;27
27;Cook, Fielder;942,1262;42,12
27;Logan, Joshua;1190,1414,1415;19,46,16
27;McGann, William;1428;27
26;Boisrond, Michel;90,91;37,16
26;Green, Guy;147,1249;2,51
26;Golden, Dan;422;26
26;Colmes, Walter;642;26
26;Donaldson, Roger;780,968,1057,1321;38,28,13,25
26;Benedek, Laslo;894;26
26;Brando, Marlon;1301;26
26;Heyes, Douglas;1353;26
26;Petrie, Daniel;1457;26
25;Lester, Richard;3,540,1411;6,6,63
25;Allegret, Marc;88;25
25;Vadim, Roger;100,101,102;8,29,39
25;Castle, Nick;315;25
25;Aykroyd, Dan;837;25
25;Estevez, Emilio;838;25
25;Weis, Gary;870;25
25;Reis, Irving;881;25
25;Jones, Chris;1371;25
25;Lucidi, Maurizio;1416;25
25;Owen, Cliff;1450;25
24;Fleming, Victor;145,364;7,42
24;Franklin, Howard ;308;24
24;Garnett, Tay;339;24
24;Davis, Andrew;491;24
24;Foley, James;492,1202;14,33
24;Marshall, Garry;515,981;6,43
24;Lewicki, Steven Jon;758;24
24;Ludwig, Edward;892,1419;14,35
24;Clayton, Jack;1072;24
24;Verhoeven, Paul;1092,1093;41,8
24;Wolfe, Donald;1243;24
24;Quisenberry, Byron;1464;24
23;Besson, Luc;8,62,905,1297;6,7,6,72
23;Gottlieb, Michael;243;23
23;Coen, Joel;579;23
23;Jones, Terry;658,1372,1373;25,11,33
23;Winkler, Henry;909;23
23;Heisler, Stuart;1250;23
23;Lester, Mark L.;1410;23
22;Lynch, David;83,250,333,996,1420,1421;3,86,6,6,32,2
22;Molander, Gustav;157,158;26,19
22;Panama, Norman;274,630;37,6
22;Colla, Richard A.;950,1215;7,37
22;Sanger, Jonathan;1477;22
21;Barry, Michael;704;21
21;DeVito, Danny;913;21
21;Taurog, Norman;1501;21
20;Schmoeller, David;283;20
20;Bernhardt, Curtis;304;20
20;Guillermin, John;485;20
20;Haines, Randa;782;20
20;Haines, Fred;1025;20
20;Zeffirelli, Franco;1055;20
20;Mackendrick, Alexander;1422,1423;28,12
20;Robinson, John Mark;1471;20
19;Bergman, Robert;225;19
19;Menendez, Ramon;335;19
19;Mann, Michael;477;19
19;Thompson, Brett;567;19
19;Amurri, Franco;616;19
19;Szwarc, Jeannot;1500;19
18;Kagan, Jeremy Paul;53,399;19,17
18;Wellman, William;76,199,1274,1524;15,44,4,7
17;Spielberg, Steven;21,106,284,455,456,521,973,983,1492,1493;8,8,31,24,6,28,6,4,8,48
17;Lambert, Bruce;215,246,670,1396;13,15,15,26
17;Coolidge, Martha;425,676;30,4
17;Barrett, Lezli-An;594;17
17;Lommel, Ulli;739;17
17;Kleiser, Randal;824;17
17;Patrick, John;1015;17
17;Werner, Peter;1526;17
16;Lumet, Sidney;75,223,258,334,357,414,678;8,1,43,5,48,6,2
16;Kershner, Irvin;113,404,1263;8,33,6
16;Budds, Colin;321;16
16;Scott, Tony;652,802,875;3,8,37
16;Greenaway, Peter;832,936;3,28
16;Annaud, Jean-Jacques;998,1289;24,8
15;Gibson, Alan;146;15
15;Litvak, Anatole;151,152;6,24
15;Chouraqui, Elie;326;15
15;Comeau, Alain;327;15
15;Loncraine, Richard;772;15
14;Malick, Terrence;4;14
14;Loma, José Antonio de la;6;14
14;Noyce, Phillip;56,651;28,1
14;Burton, Tim;109;14
14;Lindberg, Per;150;14
14;Cocteau, Jean;312;14
14;Oz, Frank;517;14
14;Cornell, John;664;14
14;August, Bille;1292;14
13;Boorman, John;185,819,960;29,3,6
13;Mann, Delbert;726;13
13;Schlöndorff, Volker;970;13
13;Preminger, Otto;1021;13
13;Penn, Leo;1455;13
12;Leigh, Jason;187;12
12;Penn, Arthur;265;12
12;Miller, Robert Ellis;516,800,809;23,2,11
12;Meyer, Nicholas;619,871;14,11
12;Locke, Sondra;707,1008;1,23
12;Edzard, Christine;931;12
12;Quine, Richard;1463;12
11;Altman, Robert;29,288;19,3
11;Hughes, Ken;39;11
11;Thorpe, Richard;68;11
11;Pearce, Richard;116;11
11;Seltzer, David;480;11
11;King, Henry;643;11
11;Bolt, Ben;682;11
11;Rohmer, Eric;979;11
11;Mizrahi, Moshe;1059;11
10;Curtiz, Michael;363;10
10;Stein, Ken;424;10
10;Wilmington, Michael;578;10
10;Schatzberg, Jerry;841;10
10;Taylor, Dan;907;10
10;Morahan, Christopher;1088;10
10;Battersby, Roy;1183;10
10;Di Leo, Mario;1320;10
9;Jones, David;82;9
9;Wicki, Bernhard;210;9
9;Brand, Larry;565;9
9;Dell, Stewart;716;9
9;Gibbins, Duncan;765;9
9;Zucker, David;946;9
8;Young, Terrence;72;8
8;Schaffner, Franklin J.;105,1478;9,8
8;Miller, George;252;8
8;Troell, Jan;388;8
8;Mulcahy, Russell;507;8
8;Sonnenfeld, B.;587;8
8;Marshall, Penny;622;8
8;Costner, Kevin;779,792;8,8
8;Fisher, Jack;911;8
8;Aslanian, Samson;1291;8
7;Young, Terence;40;7
7;McTiernan, John;200,1432;6,8
7;Crichton, Charles;289;7
7;Levy, Ralph;609;7
7;Finch, Charles;685;7
7;Dembo, Richard;1189;7
7;Annakin, Ken;1288;7
7;Kalatozov, Mikhail;1374;7
7;Tourneur, Jacques;1517;7
6;Cannon, Dyan;222;6
6;Silver, Joan Micklin;592;6
6;Ferrera, Abel;797;6
6;Zucker, Jerry;842;6
6;Rossi, Franco;958;6
6;Paris, Jerry;963;6
6;Gower, Bruce;1343;6
6;Hudson, Hugh;1361;6
6;Leo, Malcolm;1407;6
6;Nicholson, Arch;1444,1445;3,9
6;Sevush, Herb;1484;6
5;Kaufman, Philip;175;5
5;Barnard, Michael;504;5
5;Mazursky, Paul;586;5
5;Chaffey, Don;598;5
5;Schrader, Paul;974;5
5;Taylor, Baz;988;5
5;Weeks, Stephen;1121;5
5;Mandel, Robert;1154;5
5;Neame, Ronald;1258;5
5;Thomas, Gerald;1516;5
5;Wajda, Andrzej;1518;5
4;Wrede, Caspar;316;4
4;Marquand, Richard;406;4
4;Winner, Michael;657,934;8,0
4;Hanson, Curtis;714;4
4;Bunuel, Luis;1049;4
4;Farrow, John;1180;4
4;Chaplin, Charles;1304;4
3;Vanwagenen, Sterling;54;3
3;Hyam, Peter;465;3
3;Hooks, Kevin;604;3
3;Figgis, Mike;815;3
3;Scheerer, Robert;953;3
3;Hunter, Tim;1067;3
3;Wilder, Billy;1228;3
2;Kiersch, Fritz;395;2
2;Kuzui, Fran Rubel;482;2
2;Anspaugh, David;558;2
2;Higgin, Howard;711;2
2;Cromwell, John;1120;2
1;Chomsky, Marvin J.;392;1
1;Barreto, Bruno;590;1
0;Mastorakis, Nico;124;0
0;Seaton, George;177;0
0;Weill, Claudia;267;0
0;Florea, John;534;0
;Bernds, Edward;;
;Emes, Ian;;
;Webb, Millard;;
;Bradbury, Robert N.;;
;Allen, Craig;;
