74;1924;60,1045,1495;79,74,63
73;1925;447;73
66;1933;445,1085,1403;82,66,4
65;1929;17,441,448,711,895;2,70,73,2,65
64;1982;10,11,85,106,111,129,135,146,168,171,190,218,242,452,495,513,582,593,714,844,899,921,1022,1081,1105,1245,1324,1346,1362,1410,1437,1487,1503,1518,1527,1537,1566;81,17,70,8,40,18,7,15,45,84,69,70,65,8,1,74,59,73,4,73,67,64,88,30,64,1,64,53,81,23,68,75,80,5,51,86,84
64;1926;69,73,436,1398;55,76,72,49
64;1932;104,442,449,476,588,1630,1631,1654;57,81,85,66,61,7,68,19
64;1975;136,217,257,316,359,456,459,548,615,632,795,813,1034,1042,1127,1220,1275,1313,1323,1363,1458,1567,1607;2,82,69,4,87,6,64,76,42,84,69,35,59,32,72,75,85,21,76,6,16,60,72
64;1931;261,262,410,434,440,443,524,1144,1306;66,22,51,66,67,64,84,44,60
62;1949;148,314,353,537,691,770,959,1122,1276,1331,1332,1333,1510,1514,1524;74,81,84,87,19,72,74,66,57,1,8,31,62,40,7
62;1936;237,391,439,500,1058,1304;50,28,74,86,74,4
60;1980;27,83,211,267,297,325,330,367,404,520,522,569,581,583,591,635,705,769,785,831,870,919,992,995,1151,1239,1394,1430,1468,1621;88,3,58,0,74,40,66,32,33,49,61,70,65,62,45,82,57,4,66,29,25,75,80,35,76,40,74,62,71,13
60;1971;67,87,137,223,299,415,693,700,889,929,966,1024,1029,1053,1197,1340,1374,1382,1424,1442,1488,1498,1499;83,62,10,1,36,15,8,80,68,22,69,42,72,62,47,88,7,83,44,7,60,65,79
60;1935;140,156,231,438,663,1149,1355,1446;72,88,33,35,50,87,8,71
60;1997;1209;60
57;1953;161,454,639,674,727,835,894,1238,1281,1349,1354,1517,1568,1591,1606;57,50,71,82,54,65,26,67,71,3,63,7,0,56,80
56;1985;8,15,48,65,66,134,193,202,258,354,377,384,490,536,680,701,803,900,923,925,970,1023,1060,1075,1078,1087,1106,1108,1136,1159,1174,1177,1192,1211,1255,1341,1368,1467,1477,1480,1500,1521;6,39,88,81,41,79,49,10,43,82,45,20,73,27,71,69,59,62,68,62,13,86,86,45,31,45,88,9,62,9,25,68,58,64,84,70,41,49,22,61,19,54
55;1972;37,127,139,176,239,412,428,514,525,628,631,638,826,942,1018,1049,1129,1139,1215,1223,1459,1469,1476,1546;18,55,55,65,50,75,33,82,84,8,81,40,59,42,60,4,87,80,37,9,88,29,58,21
55;1965;47,95,210,259,303,417,808,943,944,1070,1249,1632;59,71,9,44,68,62,26,83,46,37,51,66
54;1955;34,35,76,99,430,599,618,640,773,849,859,901,1063,1180,1226,1250,1259,1391,1422,1529;14,38,15,83,66,58,66,69,70,80,28,8,70,4,82,23,82,9,28,51
54;1945;132,153,368,642,1329,1375,1413;80,31,54,26,88,27,76
54;1950;163,306,352,577,833,877,886,1132,1272,1273,1334;69,23,30,42,77,65,64,54,27,72,6
53;1981;21,57,198,328,336,366,390,400,549,601,625,677,771,778,810,827,897,1055,1090,1107,1198,1293,1361,1364,1445,1538;8,82,86,87,62,5,80,76,23,80,76,62,44,68,17,79,32,20,7,37,65,84,6,39,9,2
52;1940;150,313,339,419,529,584,858,883,984,1171,1428;14,61,24,78,57,51,88,87,17,52,27
50;1967;39,92,263,320,378,546,750,791,1091,1096,1128,1199,1217,1429,1620;11,54,50,28,80,50,36,27,67,64,81,49,67,28,47
50;1970;138,170,177,247,371,510,596,634,650,753,820,848,866,953,1028,1113,1118,1196,1231,1248,1261,1353,1365,1427,1431,1443,1460,1478;83,31,0,22,3,41,18,88,49,36,81,29,75,3,72,67,75,45,62,17,68,26,84,69,72,50,75,8
50;1930;435,450,1357;0,62,50
49;1928;199,437,446,573,1402;44,83,72,33,49
48;1954;41,162,220,290,463,641,720,1061,1282,1358,1401;11,69,62,48,56,25,40,22,78,52,27
48;1969;89,147,164,181,300,486,661,675,893,902,904,975,993,1188,1219,1356,1414,1454,1479;66,2,67,36,77,59,78,44,62,72,39,66,29,6,48,12,46,50,33
48;1942;126,187,301,317,1435,1617;59,12,75,36,61,31
45;1956;32,152,159,311,383,408,542,644,864,1135,1241,1257,1380,1528,1605;62,24,33,15,32,52,21,69,11,61,51,9,84,56,45
45;1937;154,603,1153,1302,1359,1379,1506,1512,1513;32,6,78,83,43,45,53,52,17
44;1991;1,23,59,61,63,79,117,169,182,270,279,284,344,347,349,350,373,398,407,418,426,475,481,483,487,506,523,545,550,551,552,553,554,555,556,561,578,589,604,610,622,716,717,732,734,740,743,757,759,763,777,779,797,816,817,818,832,837,867,871,873,905,926,937,955,964,974,982,983,991,1003,1010,1016,1019,1037,1039,1100,1112,1124,1140,1141,1143,1148,1202,1205,1256,1270,1294,1299,1305,1315,1330,1383,1385,1404,1408,1426,1436,1472,1483,1484,1494,1515,1547,1548,1559,1569,1581,1590,1600,1603,1604,1608,1609,1611,1612,1622,1623,1624,1633,1635,1640,1641,1643,1644,1648,1649,1652,1658;68,79,68,69,51,37,84,88,2,74,72,31,57,78,81,33,64,55,72,1,8,74,40,8,81,23,55,75,62,73,34,22,25,66,12,53,10,60,3,43,8,9,31,49,55,13,2,54,65,63,62,8,6,78,80,8,3,25,58,11,78,6,3,59,6,54,5,19,4,53,75,26,60,20,9,30,75,36,35,21,21,13,66,33,64,88,49,32,72,16,24,46,45,50,48,34,54,52,82,25,6,56,47,11,53,81,18,81,6,44,41,2,23,75,77,7,19,76,44,49,58,22,78,35,3,28,75,30,4
44;1977;77,128,185,235,244,287,329,360,399,405,617,623,627,636,637,666,706,729,730,776,829,965,1059,1134,1218,1251,1283,1544,1657;27,2,29,54,34,82,59,34,17,44,42,68,54,76,36,35,18,80,80,6,8,75,11,61,86,62,84,82,18
43;1978;4,51,53,141,213,392,469,512,648,672,692,703,723,896,916,1073,1101,1421;14,85,19,49,64,1,11,46,87,67,78,21,53,40,27,11,82,2
43;1947;363,572,1007,1274,1279,1504,1505,1508,1509;10,61,84,4,17,80,43,21,66
42;1988;19,20,24,26,50,62,72,74,78,84,108,122,124,133,175,212,214,215,232,268,289,309,335,395,427,429,466,470,473,479,482,502,560,562,592,597,611,619,676,678,688,747,756,764,768,794,796,798,804,807,814,824,850,854,868,907,927,931,938,939,946,948,949,962,999,1001,1005,1009,1012,1014,1054,1057,1065,1071,1072,1099,1109,1147,1150,1155,1179,1182,1200,1206,1225,1290,1292,1348,1420,1444,1447,1455,1457,1602,1613,1656;68,15,23,53,53,7,8,75,61,70,47,52,0,68,5,17,29,13,71,77,7,16,19,2,76,88,60,8,62,25,2,65,32,42,6,76,43,14,4,2,62,73,74,78,33,41,75,71,6,18,34,17,48,72,27,10,50,12,80,9,9,23,67,59,7,42,79,48,24,4,58,13,11,30,24,42,67,74,85,44,56,56,85,71,24,78,14,50,32,3,57,13,26,26,79,19
42;1957;31,88,101,291,409,547,696,722,811,887,1126,1190,1392,1423,1516,1625;42,25,29,57,84,51,43,84,47,29,74,19,60,12,5,1
42;1946;119,149,271,304,351,530,881,1386,1399;66,42,65,20,12,57,25,31,55
42;1952;160,179,219,527,543,846,892,1376,1395,1523;34,66,4,49,48,50,14,86,36,23
41;1989;7,28,71,80,109,115,123,165,201,221,225,229,246,250,256,265,275,283,285,294,310,318,323,332,334,337,341,402,403,423,431,453,458,493,498,505,509,565,580,586,600,621,645,651,658,667,669,686,702,745,772,784,786,799,809,823,830,840,872,917,922,924,928,933,950,958,961,972,997,1033,1082,1110,1123,1165,1167,1173,1232,1235,1240,1243,1265,1298,1319,1347,1366,1406,1407,1439,1450,1462,1531,1545,1560,1580,1586,1589,1594,1598,1601,1615,1655;28,88,20,40,14,71,49,16,15,18,19,73,15,86,77,12,51,20,27,81,53,5,83,86,5,10,12,66,42,80,32,88,49,53,59,36,9,9,68,5,88,8,69,1,25,53,55,65,76,70,15,65,69,30,11,9,41,51,87,12,8,66,87,59,7,6,29,29,28,71,20,43,6,42,51,57,64,43,47,24,57,35,75,75,63,35,6,11,25,31,9,5,65,52,29,56,40,12,1,70,43
41;1986;13,46,64,114,116,206,238,255,278,292,307,315,326,331,355,387,389,414,461,468,477,485,507,518,558,574,598,608,626,660,665,673,681,699,707,713,736,737,742,765,774,775,781,782,783,802,839,843,874,898,909,912,915,920,963,969,976,979,987,996,1030,1031,1047,1050,1052,1068,1074,1077,1088,1103,1164,1168,1172,1183,1204,1207,1247,1289,1291,1314,1318,1369,1465,1496,1520,1532,1533,1534,1535,1557,1576,1579,1582;49,82,52,7,11,45,40,16,49,71,33,25,15,87,39,8,52,6,77,69,19,20,8,22,2,63,5,74,84,41,66,79,28,86,1,47,56,75,20,9,77,61,6,20,34,8,61,66,57,47,23,36,47,12,6,88,75,11,59,6,12,42,88,38,54,84,40,29,10,57,41,53,62,10,16,82,39,8,8,63,16,49,71,8,24,4,24,79,63,54,67,65,3
41;1976;16,180,357,501,540,630,828,852,908,998,1056,1360,1416,1452,1481,1491,1525;51,35,48,85,6,6,70,70,0,24,78,88,25,45,39,36,41
41;1974;75,183,195,234,295,358,365,376,516,521,629,704,767,847,855,960,1025,1214,1236,1322,1381,1411,1583;8,81,83,28,81,55,1,41,23,28,8,21,50,66,73,6,20,84,59,31,64,63,34
41;1961;151,280,340,374,464,541,719,725,1163,1260,1267,1301,1342,1393;6,4,39,20,43,60,83,10,71,38,54,26,77,60
40;1987;22,55,70,86,103,105,110,167,192,209,226,240,243,251,252,266,272,288,322,343,345,361,381,382,396,432,457,467,494,496,504,508,515,534,559,568,571,575,579,585,594,606,649,653,657,659,668,670,682,697,709,715,761,793,801,819,838,853,860,863,875,880,903,951,956,957,973,977,980,1013,1044,1067,1069,1083,1094,1097,1114,1119,1154,1157,1227,1230,1234,1246,1264,1277,1286,1295,1303,1317,1325,1396,1412,1418,1438,1441,1451,1453,1473,1482,1553,1599;31,61,79,6,48,9,7,71,45,66,40,14,23,6,8,7,20,3,24,71,41,23,41,38,84,45,44,44,66,6,5,51,6,0,50,71,5,71,23,27,17,47,77,21,8,71,62,15,11,36,41,34,75,81,57,3,25,45,44,50,37,47,45,36,66,35,6,49,73,41,72,3,5,36,13,32,52,41,5,16,74,23,67,54,68,69,73,1,68,7,82,26,37,37,51,42,21,59,87,69,25,14
40;1992;33,52,54,56,58,82,107,112,200,249,276,286,312,321,356,380,386,394,422,480,489,497,517,557,567,587,646,689,690,735,738,754,758,780,787,790,834,865,878,885,890,914,936,952,985,988,1000,1002,1021,1036,1064,1086,1092,1095,1111,1133,1145,1203,1208,1244,1253,1371,1507,1511,1541,1543,1549,1550,1552,1554,1555,1564,1571,1572,1573,1574,1575,1585,1592,1593,1595,1618,1619,1626,1634,1642,1646,1651;36,5,3,28,68,9,44,50,6,85,87,13,14,16,69,8,80,67,26,11,58,58,14,31,19,8,69,7,24,1,55,71,24,38,0,71,60,61,45,26,74,88,28,45,20,5,24,8,13,79,77,25,41,36,61,82,32,39,59,64,76,25,43,78,22,40,26,68,55,45,54,70,1,60,65,6,68,76,86,26,66,83,68,44,3,8,5,16
40;1944;142,420,1409,1419;25,44,45,35
39;1996;81;39
39;1973;102,174,178,189,204,216,421,570,595,613,633,821,930,1026,1043,1142,1186,1194,1213,1222,1237,1242,1434,1440,1461,1563;39,54,10,57,83,28,31,11,79,3,59,40,83,65,28,54,3,7,73,39,39,12,6,47,28,54
38;1941;144,712,856,882,884,1120,1169;32,3,38,85,85,2,79
38;1993;194,196,346,369,379,906,971,1089,1138,1269,1278,1326,1456,1493,1540,1556,1558,1584,1627,1647,1650;13,62,60,34,48,53,80,8,26,29,0,29,70,48,6,26,25,38,70,73,77
38;1927;602,932;45,31
37;1948;131,145,208,273,302,528,531,612,845,1152,1335,1336,1337,1490;31,7,73,39,72,16,48,29,35,4,72,18,61,77
36;1984;6,49,120,173,227,228,254,372,385,397,484,492,511,519,535,655,656,662,805,841,910,913,967,1032,1102,1121,1146,1176,1178,1189,1212,1308,1321,1344,1370,1417,1425,1471;14,67,36,6,75,63,72,41,14,83,17,14,81,53,3,27,73,78,50,10,75,21,73,48,31,5,60,4,83,7,50,45,25,36,6,34,17,20
36;1934;433,576,1629,1645;57,9,23,48
35;1966;12,14,44,45,233,277,375,471,563,1020,1046,1185,1216,1228,1262,1263,1287,1327,1351,1352,1433;46,6,8,35,63,15,60,20,20,79,69,81,70,3,12,6,34,40,70,26,75
35;1962;36,40,96,100,274,282,451,744,822,935,941,1288,1296,1390,1530;64,7,30,8,37,11,60,80,85,39,77,7,35,6,35
34;1958;38,90,98,143,197,205,726,879,1004,1181,1345,1614;52,37,70,1,67,50,13,10,10,4,54,30
34;1968;93,188,264,544,751,851,994,1027,1035,1116,1130,1184,1187,1191,1221,1252,1266,1338,1377,1596;0,38,57,78,86,33,22,26,80,30,60,83,37,57,9,33,32,8,36,28
34;1964;94,97,184,472,526,533,538,724,812,1079,1254,1415,1539;81,34,77,27,29,2,10,62,39,51,61,16,6
32;1979;3,29,42,253,293,348,370,388,401,413,416,455,460,474,624,731,739,748,918,990,1038,1080,1098,1210,1258,1284,1307,1309,1316,1372,1463,1489,1616;6,19,60,32,67,7,51,8,64,43,34,24,75,62,82,52,17,31,22,86,46,2,8,83,5,10,68,8,47,11,12,22,38
32;1960;30,539,695,718,825,1062,1268,1350,1387,1519,1610;20,32,56,52,88,67,3,31,65,29,5
32;1951;698,862,989,1388,1389,1466;75,5,17,40,59,23
30;1990;0,9,25,118,121,125,130,166,191,203,207,222,241,245,269,281,296,298,308,319,333,338,342,362,393,411,424,478,488,532,590,607,616,652,664,671,679,685,687,694,733,746,752,760,762,766,788,789,792,815,842,857,876,911,934,940,947,954,968,981,986,1006,1008,1015,1017,1040,1041,1048,1076,1084,1093,1117,1158,1166,1193,1201,1224,1229,1233,1280,1310,1320,1328,1367,1378,1405,1432,1448,1449,1474,1475,1492,1502,1522,1526,1536,1542,1565,1570,1577,1578,1588,1597,1639,1653;68,32,80,48,74,69,88,16,72,48,76,6,61,32,73,66,22,35,24,33,6,12,72,20,47,79,10,82,61,84,1,44,19,3,14,23,60,7,66,49,2,25,63,32,77,70,28,18,8,3,6,29,40,8,0,88,50,6,28,43,58,5,23,17,41,27,1,62,41,8,8,39,33,7,30,75,13,46,30,18,7,10,1,30,84,78,8,29,88,63,22,8,48,8,17,82,6,79,3,3,49,54,3,87,23
30;1983;2,5,43,113,172,224,236,324,327,406,425,465,491,503,605,614,620,654,683,684,749,800,806,836,891,945,1051,1104,1115,1125,1156,1175,1297,1339,1343,1373,1464,1470,1562,1587;79,68,67,8,20,28,51,28,15,4,30,3,24,61,10,34,51,29,4,56,32,2,51,27,0,8,7,52,46,54,65,68,72,54,6,33,24,52,23,24
30;1938;155,158,499,708,1485,1486,1501,1638;49,19,82,27,83,33,21,28
30;1939;157,305,444,643,755,888,1011,1170,1628,1636,1637;26,18,40,11,83,75,30,53,73,3,24
29;1920;1400;29
26;1959;68,91,462,710,728,1162,1195,1551,1561;11,16,76,63,54,3,8,54,26
;1923;;
;1943;248,364,566,741,978,1137,1271,1384;87,42,77,83,27,79,32,85
;1963;18,230,260,609,721,861,1066,1131,1160,1161,1300,1311,1312,1497;62,80,63,7,73,2,36,80,2,79,38,88,85,79
